<svg xmlns="http://www.w3.org/2000/svg" width="1568" height="234.312" viewBox="0 0 1568 234.312">
  <defs>
    <style>
      .cls-1 {
        fill: #9dc9d0;
        fill-rule: evenodd;
      }
    </style>
  </defs>
  <path id="far" class="cls-1" d="M1233,261c0.33,1.333.67,2.667,1,4l7,1v1l10-1c2.05,0.628,5.81,3.483,10,2v-1l4-1c0.33-.667.67-1.333,1-2h2c0.33-.667.67-1.333,1-2l4-1c0.33-.667.67-1.333,1-2h2v-1h4v-1h4v1l22,7c-0.16,2.582-.14,3.451-1,5h-1v72a2.69,2.69,0,0,1,1,3h-1c0.33,2.666.67,5.334,1,8h-1c0.33,2.333.67,4.667,1,7h-1c-0.59,2.54.9,3.634,1,5-0.33,2-.67,4-1,6h1v4h-1c0.33,2.333.67,4.667,1,7h-1c0.33,2.666.67,5.334,1,8h-1c0.33,2.333.67,4.667,1,7h-1v4h1v4h-1c0.33,2.333.67,4.667,1,7h-1c0.33,2,.67,4,1,6-0.1,1.366-1.59,2.46-1,5h1v4h-1c0.33,2.333.67,4.667,1,7h-1c0.33,2.333.67,4.667,1,7h-1q0.495,8,1,16l-116,1h-43c-8.98,0-19.58-.332-27,1-0.33,1.333-.67,2.667-1,4h-1V259l-5,1a7.536,7.536,0,0,1,6-6v-7c1.85-.708,6.23-1,8-2,0.67-1,1.33-2,2-3l6-5c0.33-.667.67-1.333,1-2h7c2.18,2.013,4.77.977,8,2v1h13a37.183,37.183,0,0,0,12,2c0.89-1.44,4.54-4.158,6-5h2c0.33-.667.67-1.333,1-2l4-1c0.33-.667.67-1.333,1-2h4v-1c5.4-1.582,16.65,3.666,20,5h3v1c3.33,0.667,6.67,1.333,10,2v1h1v4c-5.05,2.911-2.46,11.161-2,17h1v1ZM180,255v4c5.174,2.272,10.237,5.454,15,8l6,2v1h2v1h2v1c3.229,1.111,17.187-4.168,20-5,7.695-2.276,11.252,3.247,15,5h3l1,2c0.134,0.036,7.111-2.628,8-3v1c3.561,0.643,4.527,2.616,7,4l4,1,1,2,3,1v7c2.909,0.687,2.429,1.751,3,2,2.846,1.243,5.74-.349,8,1l1,2c2.274,1.415,5.365,2.054,8,3v1c0.9,0.093,6.534-1.736,8-2v-6l30-6v4c3.494,1.847,5.13,2.071,11,2,1.047-.681,11.769,3.482,16,4q-1,77.993-2,156c-2.652,1-6.944,1.041-11,1-2.053,1.8-8.294,1.011-12,1l-31-1c-13.15,0-26.538-.055-37-3H178v3h-7v-1H159c-9.22,0-21.484-1.079-29,1-3.239.9-7.168-.7-9-1H93l1-177c1.135-.844.145,0.127,1-1l6-1v-9l18-5c3.158-1.253,5.358-2.681,10-3v1h2c0.943,0.8.77,2.029,2,3,2.337-3.4,16.228-6.1,21-8h3v-1c1.974-.744,2.613-0.089,4-1v1C167.85,248.346,172.486,253.4,180,255ZM38,268c0.7,2.638,1.594,3.187,3,5h1v2h1v8h1v15c0.234,1.395,1.038-.414,1,1H44v6c1.368,8.611,0,30.3,0,45v95l-23,4v-3H20c-1.934-1.783-8.393-1.1-12-1v-5H0V252c6.311-1.131,11.042-4.236,18-5l3,5h4l6,8c1.227,3.031-.559,6.582,2,8h5Zm1485-5c3.71-.7,16.85-6.266,18-5,4.24,2.666,1.63,4.838,9,5a7.963,7.963,0,0,0,2,4h1v2c0.67,0.333,1.33.667,2,1v6h1c1.4,1.906,1.27,2.233,4,3h2c0.33,0.667.67,1.333,1,2h1v2l3,2,1,170h-1v1c-7.76.214-15,2.613-22,4v-4h-13v-6a75.009,75.009,0,0,0-14,1v5l-47-1v1l-4,1V322h-3v-1c-1.61-1.805-1-6.646-1-10V285h1v-5c6.7-2.21,9.33-.3,9-10,3.91-.327,6.24-1.925,9-3h3v-1l13-1v-3h1v-1l6-1v-1h2v-1l12-1C1521.04,259.42,1522.47,258.635,1523,263ZM1002,441c-0.51-42.992-1.35-129.669-2-126-4.859-1.918-2.491-1.753-5-6h-1v-2l-2-1q0.5-1,1-2c-18.472-8.516-40.368-13.9-59-22h-3v-1h-3v-1h-1v1c-3.192.65-5.347,0.7-8,2v1c-2.25,1.065-1.105-1.016-3,1h-3v-1h-1v-3c-3.334-.278-6.326-1.049-8-3h-1c1.319-2.936.98-3.149,0-6-3.394-.694-11.639-5.124-15-4v1h-2v1l-7,2c0.012,2.644.548,6.86-1,8-1.076.792-4.816,0.323-6,2v1c1.56,1.053.644,0.328,0,2-5.307-.017-13.443-1.429-16-4-2.246.325-51.667,26-52,27a12.08,12.08,0,0,1-9,6v5h1q-0.5,53.994-1,108l3,1c-0.037,3.807.082,7.563,1,10C806.333,439.666,994.183,441.021,1002,441ZM497,307c2.736-1.837.877-1.774,2-3,1.351-1.475,5.2-1.029,8-1v-2c2.3-.276,2.551-0.19,4-1v-1h7c1.584-2.749,2.47-1.8,3-6h13q0.5-1,1-2c1.657,0.173,1.707,1.894,2,2h13q1,2.5,2,5h52c0.823-1.876,1.481-2.616,2-5h13q0.5-1,1-2c1.657,0.173,1.707,1.894,2,2h13c0.5,2.706,1.069,3.761,3,5v1h7v1c1.444,0.81,1.7.741,4,1v2h7a13.3,13.3,0,0,0,3,4v2l-2,1c0,10.37,1,135.334,1,139H614l-17,1c-7.718-2.151-30.281-2.147-38,0l-17-1H498C498,440.334,500.422,314.823,497,307Z" transform="translate(0 -228.688)"/>
</svg>
